Data Exploration
…
dis$stats # lower whisker, the lower hinge, the median, the upper hinge and the extreme of the upper whisker for one group/plot 

##      [,1] [,2] [,3] [,4] [,5] [,6]  [,7]  [,8]  [,9]
## [1,] 0.00  0.0 0.00  0.0 0.00 0.00 0.000  0.00  0.00
## [2,] 0.95  1.0 1.00  1.0 0.99 0.98 0.000  0.00  0.00
## [3,] 1.60  1.7 1.68  1.7 1.67 1.65 0.000  0.00  0.00
## [4,] 3.00  3.2 3.11  3.2 3.12 3.08 4.115 11.87 10.34
## [5,] 6.07  6.5 6.27  6.5 6.31 6.23 7.150 24.57 25.24

# where trip distance is 0
filter(df, trip_distance==0) # keep 0 distances since there are instances where revenue is made though 0 miles is recorded (note: perhaps this is any mile value less than 0, e.g. .3 miles)

## # A tibble: 189,006 x 17
##    VendorID tpep_pickup_dateti tpep_dropoff_datet passenger_count
##       <dbl> <dttm>              <dttm>                        <dbl>
##  1        1 2017-03-10 14:12:23 2017-03-10 14:12:32               1
##  2        1 2017-03-10 14:12:32 2017-03-10 14:12:32               1
##  3        2 2017-03-10 14:12:53 2017-03-10 14:13:06               1
##  4        1 2017-03-10 14:14:27 2017-03-10 14:14:29               1
##  5        1 2017-03-10 14:14:45 2017-03-10 14:53:14               1
##  6        2 2017-03-10 14:14:53 2017-03-10 14:15:04               1
##  7        1 2017-03-10 14:15:03 2017-03-10 14:15:07               1
##  8        1 2017-03-10 14:15:04 2017-03-10 14:15:06               1
##  9        1 2017-03-10 14:15:13 2017-03-10 14:15:39               1
## 10        1 2017-03-10 14:15:16 2017-03-10 14:15:19               2
## # ... with 188,996 more rows, and 13 more variables: trip_distance <dbl>,
## #   RatecodeID <dbl>, store_and_fwd_flag <chr>, PULocationID <dbl>,
## #   DOLocationID <dbl>, payment_type <dbl>, fare_amount <dbl>,
## #   extra <dbl>, mta_tax <dbl>, tip_amount <dbl>, tolls_amount <dbl>,
## #   improvement_surcharge <dbl>, total_amount <dbl>
…
## # A tibble: 7 x 2
## # Groups:   RatecodeID [7]
##   RatecodeID        n
##        <dbl>    <int>
## 1          1 28295446
## 2          2   650880
## 3          3    61738
## 4          4    15441
## 5          5    96409
## 6          6      240
## 7         99       73

filter(df,RatecodeID==99) # examine rows where Ratecodeid = 99; there are 73 rows; most of these rows have 0 values; seems safe to remove rows from analysis

## # A tibble: 73 x 17
##    VendorID tpep_pickup_dateti tpep_dropoff_datet passenger_count
##       <dbl> <dttm>              <dttm>                        <dbl>
##  1        2 2017-03-10 15:31:46 2017-03-10 15:31:47               1
##  2        1 2017-03-10 19:55:43 2017-03-10 19:55:43               1
##  3        1 2017-03-01 23:02:59 2017-03-01 23:02:59               1
##  4        1 2017-03-03 18:20:18 2017-03-03 18:20:18               1
##  5        1 2017-03-08 19:44:56 2017-03-08 19:51:49               1
##  6        1 2017-03-09 19:26:10 2017-03-09 19:26:10               1
##  7        1 2017-03-10 09:04:21 2017-03-10 09:04:21               1
##  8        1 2017-03-13 22:01:25 2017-03-13 22:01:25               3
##  9        1 2017-03-14 15:04:30 2017-03-14 15:04:30               1
## 10        1 2017-03-16 13:29:34 2017-03-16 13:29:34               1
## # ... with 63 more rows, and 13 more variables: trip_distance <dbl>,
## #   RatecodeID <dbl>, store_and_fwd_flag <chr>, PULocationID <dbl>,
## #   DOLocationID <dbl>, payment_type <dbl>, fare_amount <dbl>,
## #   extra <dbl>, mta_tax <dbl>, tip_amount <dbl>, tolls_amount <dbl>,
## #   improvement_surcharge <dbl>, total_amount <dbl>
…
